…
    ##  [1] "order_id"               "product_id"            
    ##  [3] "add_to_cart_order"      "reordered"             
    ##  [5] "user_id"                "eval_set"              
    ##  [7] "order_number"           "order_dow"             
    ##  [9] "order_hour_of_day"      "days_since_prior_order"
    ## [11] "product_name"           "aisle_id"              
    ## [13] "department_id"          "aisle"                 
    ## [15] "department"

``` r
instacart
```

    ## # A tibble: 1,384,617 x 15
    ##    order_id product_id add_to_cart_ord… reordered user_id eval_set
    ##       <int>      <int>            <int>     <int>   <int> <chr>   
    ##  1        1      49302                1         1  112108 train   
    ##  2        1      11109                2         1  112108 train   
    ##  3        1      10246                3         0  112108 train   
    ##  4        1      49683                4         0  112108 train   
    ##  5        1      43633                5         1  112108 train   
    ##  6        1      13176                6         0  112108 train   
    ##  7        1      47209                7         0  112108 train   
    ##  8        1      22035                8         1  112108 train   
    ##  9       36      39612                1         0   79431 train   
    ## 10       36      19660                2         1   79431 train   
    ## # ... with 1,384,607 more rows, and 9 more variables: order_number <int>,
    ## #   order_dow <int>, order_hour_of_day <int>,
    ## #   days_since_prior_order <int>, product_name <chr>, aisle_id <int>,
    ## #   department_id <int>, aisle <chr>, department <chr>
…
By using the 'group\_by' + 'summarize' function combination, the total number of orders was calculated for each aisle to yield a tibble that lists the aisles most ordered from in desceing order. The aisles most ordered from are fresh vegetables, fresh fruits and packaged vegetables and fruits.

``` r
instacart %>% 
  group_by(aisle, order_id) %>% 
  summarize(total_count = n()) %>% 
  group_by(aisle) %>% 
  summarize(total_order = sum(total_count)) %>% 
  arrange(desc(total_order))
```

    ## # A tibble: 134 x 2
    ##    aisle                         total_order
    ##    <chr>                               <int>
    ##  1 fresh vegetables                   150609
    ##  2 fresh fruits                       150473
    ##  3 packaged vegetables fruits          78493
    ##  4 yogurt                              55240
    ##  5 packaged cheese                     41699
    ##  6 water seltzer sparkling water       36617
    ##  7 milk                                32644
    ##  8 chips pretzels                      31269
    ##  9 soy lactosefree                     26240
    ## 10 bread                               23635
    ## # ... with 124 more rows
…
